

•   首页 
•   知 学堂 
•   会员 
•   发现 
•   等 你 来 答 

[                                         ] ​ 
切换 模式 
登录 / 注册 

哲学 

文化 

种族 

种族主义 

种族歧视 

「 种族歧视 是 错误 的 」 这个 结论 的 原理 是 什么 ？ 

我 觉得 我们 既然 可以 歧视 其他 动物 ， 歧视 植物 ， 歧视 微生物 ， 又 有 什么 理由 不能 歧视 其他 
种族 呢 ， 难道 就是 因为 长得 比较 像 （ 比如 黑人 ） 但 黑猩猩 也 和 人长 得 像 吧 、 我们 既 … 显示 全 
部   ​ 
关注 者 
1 , 433 
被 浏览 
579 , 240 
关注 问题 ​ 写 回答 
​ 邀请 回答 
​ 55   条 评论 
​ 分享 
​ 

389   个 回答 

默认 排序 
姜源 
姜源 ​ ​ 
法律 等   2   个 话题 下 的 优秀 答主 
​   关注 
840   人 赞同 了 该 回答 

“ 种族歧视 是 错误 的 ” 的 基础 是 我们 认为 “ 歧视 是 错误 的 ” ， 不仅 是 基于 种族 产生 的 歧视 ， 基 
于 性别 、 地域 、 家庭出身 、 宗教 、 职业 、 收入 等等 标准 产生 的 “ 歧视 ” 也 都 是 错误 的 。 不过 
要 进一步 解释 其中 的 原因 ， 很 可能 会 陷入 循环论证 之中 ， 因为 “ 歧视 ” 这个 词 本身 已经 包含 
了 我们 对 这种 行为 的 负面 评价 。 

作为 讨论 的 起点 ， 我 想 大多数 人 大体上 会 认同 这样 的 一个 社会 ： 在 这个 社会 中 各种 资源 以 
一种 较为 合理 的 方法 分配 给 社会 中 的 每 一个 人 ， 使得 每 一个 人 都 可以 得到 其 应得 的 那 一份 
资源 。 而 一个 人 获取 资源 的 种类 和 多少 应该 尽可能 取决于 这个 人 自己 的 选择 和 行动 。 当然 
这样 的 设想 显然 是 比较 理想化 的 ， 而且 一直 到 现在 ， 也 没有 找到 一种 符合 这一 理想 并且 让 
所有人 都 满意 的 分配 规则 。 不过 基于 这个 较 高 的 理想化 标准 ， 我们 也 可以 反过来 引出 “ 歧视 
” 的 定义 ， 即 在 某 一 制度 或者 文化 中 ， 如果 一个 人 在 资源分配 、 社会 境遇 等 方面 遭受 的 差别 
化 对待 和 这个 人 的 所 做 作为 之间 缺乏 因果关系 ， 那 我们 就 说 这个 人 遭遇 了 “ 歧视 ” ， 并且 在 
直觉 上 会 认为 这是 不好 和 不 公正 的 事 。 

抽象 的 讲道理 比较 虚 ， 我们 可以 随便 举 几个 例子 说明 什么 是 歧视 。 比如 某 一家 企业 的 老板 
决定 ， 姓氏 笔划 数 多于 十划 的 员工 的 工资 比 姓氏 笔划 数 少于 十划 的 员工 的 工资 低 30% ， 我们 
一定 会 认为 这个 老板 的 智力 有 问题 。 因为 一个 员工 的 收入 应该 和 他 的 工作 表现 挂钩 ， 而 不 
是 和 他 的 姓氏 笔划 数 多少 产生 任何 联系 。 比如 某地 律师协会 宣布 ， 只有 身份证号 为 1 开头 的 
人才 可以 在 该地 律师协会 注册 登记 为 律师 ， 身份证号 以 其他 数字 开头 的 人 则 不能 办理 注册 
登记 。 我们 肯定 也 会 认为 这个 制度 是 不 公正 的 。 我们 可以 理解 一个 人 是否 有 资格 在 当地 做 
律师 与 这个 人 的 法律 素养 （ 比如 是否 通过 法律 执业 人员 的 资格考试 ） 挂钩 ， 但 我们 不能 理 
解 一个 人 做 律师 的 资格 和 他 的 身份证 号码 之间 存在 何种 因果关系 。 

当然 在 真实 的 历史 上 ， 并 没有 根据 姓氏 笔划 数 多少 决定 收入 的 企业 ， 但是 我们 可以 看到 各 
个 国家 在 各个 时代 存在 的 无数 针对性 别 、 出生地 、 家庭 出生 、 宗教信仰 、 收入 高低 、 种族 
等等 各种因素 所 施加 的 差别 对待 。 比如 女性 没有 资格 接受 教育 ， 比如 工人 或者 农民 没有 资 
格 参与 政治 活动 ， 比如 黑人 不能 和 白人 在 同一个 餐厅 就餐 ， 比如 某些 宗教信仰 的 人 不能 被 
授予 学位 ， 比如 某些 省份 的 学生 获得 相对 较少 的 大学 招生 名额 ， 比如 某些 低 种姓 的 人 不能 
从事 特定 工作 等等 。 我们 甚至 可以 发现 大量 针对 特定 人群 的 暴力 袭击 和 屠杀 。 总的来说 ， 
基于 不同 原因 所 产生 的 形形色色 的 歧视 充斥 于 历史 和 现实 之中 ， 在 我们 的 日常生活 中 都 可 
以 轻易 地 举出 大量 歧视 的 制度 和 文化 现象 。 在 如此 庞大 的 歧视 现象 中 ， 基于 “ 种族 ” 的 歧视 
只是 其中 的 一种 ， 并 没有 什么 特殊 之 处 。 而 包括 种族歧视 在内 的 各种类型 的 歧视 之所以 是 
错误 的 ， 不仅 是 一种 理论 推演 的 结论 ， 也 是 基于 真实 历史 的 经验教训 。 

经常 有人 说 中国 历史 上 不 存在 “ 种族歧视 ” ， “ 种族歧视 ” 是 一个 外来 概念 。 这种 说法 是 想 当 
然耳 。 “ 种族歧视 ” 在 中国 同样 有着 悠久 的 历史 （ 相关 内容 可见 《 近代 中国 之 种族 观念 》 一 
书 ） ， 只不过 大多数 中国 人 客观 上 不太有 机会 接触 到 其他 种族 的 人 而已 。 但 即使 “ 种族歧视 
” 离 普通 中国 人 非常 遥远 ， 但是 建立 在 性别 、 地域 、 贫富 、 城乡 、 兴趣爱好 、 生活习惯 之上 
的 “ 歧视 ” 在 我们 生活 中 一点 都 不少 。 我们 之所以 反对 “ 种族歧视 ” ， 实际上 是 反对 一切 无视 
个人 的 选择 和 行为 ， 以 抽象 标签 为 理由 ， 对 具体 个人 施加 不 公正 对待 的 制度 和 文化 。 

编辑 于   2019 - 09 - 10   23 : 59 
​ 赞同   840 ​ ​ 64   条 评论 
​ 分享 
​ 收藏 ​ 喜欢 收起 ​ 
刘 星驰 
刘 星驰 ​ 
保罗 · 瓦莱里 大学 文化 研究 博士 
​   关注 
3 , 262   人 赞同 了 该 回答 

种族主义 并非 被 公认 是 错 的 。 即使 政治 正确 如此 重要 的 今天 ， 还是 有 很多 人 变着法儿 来聊 
种族主义 观点 。 可能 他们 的 论证 思路 不再 是 纳粹 欧洲 时期 的 科学 人种 论 了 ， 但 完全 有 可能 
是 某种 文化 决定论 、 地缘 论 的 种族主义 。 美国 大名鼎鼎 的 亨廷顿 教授 ， 官至 哈佛大学 国际 
与 地区 研究 学院 主任 ， 写过 《 安全 环境 的 改变 与 美国 国家 利益 》 研究 报告 。 他 认为 冷战 之 
后 必然 是 『 文明 冲突 』 。 他 说 非洲 加纳 和 亚洲 的 韩国 在 六十年代 水平 差不多 ， 得到 的 援助 
水平 也 差不多 。 但是 韩国 之 所谓 以弱 为 强 ， 在于 儒家文化 如何 如何 。 美国 国际 发展署 的 官 
员 、 著名 文化 学者 劳伦斯 · 哈里森 教授 写过 一本 《 不 发达 是 一种 心态 ： 拉丁美洲 个案 》 ， 他 
列举 拉丁美洲 的 文化 时 如何 如何 腐朽 、 静止 、 落后 、 愚昧 ， 肯定 发展 不 起来 ； 相比 起来 殖 
民主 义 其实 没有 怎么 伤害 拉丁美洲 。 哈里森 说 拉美 的 『 静态 文化 』 有 10 条 不行 ， 北美 的 『 
动态 文化 』 有 10 条行 ， 跟 郭嘉 同志 『 十胜十败 』 之 说 异曲同工 。 

这种 话语 背后 ， 依然 是 二战 前 的 纳粹 逻辑 。 只是 纳粹 欧洲 相信 犹太人 不行 是 基因 层面 的 不 
行 ； 后来 的 这些 文化 学者 相信 现在 的 亚非拉 不行 是 文化 、 传统 、 宗教 层面 的 不行 。 这种 文 
章 让 美国 首脑 们 看 了 很爽 ： 啊 ， 原来 我们 世界 第一 是因为 我们 文化 优良 啊 ！ 这 跟 雅利安 吹 
其实 也 差 不太多 。 美国 的 这种 文化 政治学 说 更 像是 一种 政治家 的 『 远见卓识 』 ， 而 不是 科 
学家 的 严密 论证 。 

所以 ， 题主 ， 你 说 种族主义 错 了 ， 不 明白 错 在 哪里 ， 你 可能 要 引用 一个 文献 ， 然后 提 这样 
的 问题 ： 『 为什么 XXX 认为 种族主义 是 错 的 ？ 』 这样 才 有 得 聊 。 我们 会 分析 文本 裂缝 、 分析 
思想家 生平 和 时代背景 来 告诉 你 他 为什么 会 这么 认为 。 

『 种族主义 是 错 的 』 这个 结论 并 不是 所有 学者 公认 的 结论 。 

种族主义 并 不是 一种 实然 判断 ， 里面 有 一堆 应然 的 偏好 ， 很多 未经 验证 但 被 大多数 人 接受 
的 所谓 共识 、 许多 导师 、 父亲 、 舵手 的 教条 。 这些 东西 没 办法 像 做 物理题 一样 用 理性 推断 
出来 ， 也 不能 通过 实验 得出 经验 公式 ， 它们 是 一种 思想 、 一种 偏好 ， 一种 杀 不 死 的 东西 。 
它们 太 庞大 、 复杂 了 ， 很 难得 出 一个 公认 的 对 或者 错 的 结论 。 

一种 主义 是 『 错 的 』 与 『 三角形 有 四条 边 』 是 『 错 的 』 ， 这 两种 错法 是 不 一样 的 。 一种 主 
义 ， 都 是 一些 人 认为 是 错 的 ， 一些 人 认为 是 对 的 。 如果 清醒 一点 的话 ， 我们 要 追问 ， 这里 
的 对错 标准 是 什么 ？ 是 实然 的 证据 还是 应然 的 主张 ？ 事实上 ， 当 人们 说 『 种族主义 是 错 的 
』 的 时候 ， 他们 其实 在 说 ： 『 种族主义 是 坏 的 』 。 

边沁 主义者 认为 种族主义 是 错 的 ， 是因为 种族主义 不利于 劳动力 的 自由 流动 ， 降低 了 整个 
社会 的 公共 福祉 。 一个 社会 中 竟然 有 一部分 劳动力 被 闲置 了 ， 从 效率 上 来说 ， 种族主义 是 
错 的 。 另外 ， 被 欺负 被 歧视 的 人 他们 也 很 不爽 ， 所以 他们 的 不爽 影响 了 社会 的 总爽 程度 。 

马克思主义者 认为 种族主义 是 错 的 ， 是从 意识形态 理论 和 阶级斗争 角度 来说 的 。 反动 统治 
者 用 种族 的 矛盾 转移 了 阶级 的 矛盾 ， 保住 了 自己 的 王位 。 人们 如果 听信 了 种族主义 的 那 一 
套 ， 无产者 就 团结 不 起来 。 一个 无产者 ， 他 是 黑 的 或者 红 的 或者 白 的 或者 黄 的 ， 他 都 是 无 
产者 ， 全世界 的 无产者 团结起来 就 能够 推翻 压迫 和 剥削 。 马克思 本人 对于 美国黑人 问题 是 
有 一些 别的 看法 的 。 第四 国际 出过 一本 英文 文件 ， 叫做 《 马克思 谈 黑人 问题 》 ， 如果 我理 
解得 不 偏差 的话 ， 他 对 黑人 问题 还是 很 客观 的 。 他 说 ， 没有 黑奴 就 没有 纺织厂 和 糖厂 。 他 
本人 并 没有 像 一般 的 教主 或者 神棍 一样 说 奴隶主 就是 恶魔 什么 的 。 

清醒 一点 的 大 公司 老板 ， 也 认为 种族主义 是 错 的 。 那 是因为 用工 成本 问题 。 譬如 张三是 一 
个 很 讨厌 印度人 的 美国 软件 公司 老板 。 他 不用 便宜 好用 水平 高 的 印度人 ， 就 不得不 用 又 贵 
又 事儿 妈 又 业务水平 低 的 白人 码农 。 这样 张三 的 公司 在 市场 上 就 竞争 不过 别的 公司 ， 他 就 
无法 履行 对 董事 们 的 承诺 。 

… … … … 

以上 这种 力量 一 多 ， 种族主义 就 在 社会 话语 中 不 占 主流 ， 它 就 可能 被 排除 在 主流 话语 之外 
， 被 大家 都 看做 是 错 的 。 但是 不同 的 人 认为 他 的 错 的 地方 是 不 一样 的 。 

一个 应然 问题 的 对错 ， 往往 由 共识 组成 而 不是 事实 组成 。 不同 评价 体系 之下 的 所谓 事实 是 
不 一样 的 。 事实 不 都 是 测量 出来 的 ， 很多 事实 是 建构 出来 的 。 


— — — — — — — — — — — — 

好像 有 一些 朋友 关于 『 黑人 智商 』 问题 想要 知道 我 的 看法 。 由于 我 不是 搞 人类学 或者 医学 
的 ， 不是 太 懂 。 我 班门弄斧 一下 看看 能 不能 勾引 出 高手 来 指正 。 

我 的 思路 是 两个 方面 ， 一个 是 『 弗林 效应 』 ， 一个 是 『 多元 智商 』 。 

我们 通常 所说 的 智商 并 不见得 能够 客观 地 反映 一个 人 或者 一个 种族 的 聪明 程度 。 上个世纪 
有 一个 叫做 弗林 的 医生 发现 ， 美国 人 整体 的 智商 在 很 短 的 时间 内 提高 了 十多分 ， 不可思议 
。 他 还 发现 少数民族 的 人 （ 譬如 美国黑人 、 印第安人 ） 的 智商 好像 很 低 ， 但是 接受 了 教育 
之后 智商 明显提高 ， 受过 高等教育 的 黑人 和 印第安人 跟 白人 的 智商 没有 区别 。 这个 诡异 的 
现象 被 称为 弗林 效应 。 

弗林 效应 有 一个 很 简单 的 解释 — — 智商 是 教育 塑造 的 。 不 念书 的 孩子 做 智商 题 优劣势 ， 念书 
的 孩子 做题 就 有 优势 。 专门 培训 过 的 孩子 做 这种 题 就 无敌 。 众所周知 ， 智商 其实 是 一场 考 
试 的 得分 对 吧 。 大家 都 做 过 那种 门萨 题 。 门萨 题多 做 多会 ， 一天到晚 做 门萨 题 的 爱好者 要 
到 148 简直 易如反掌 ， 做 多 了 之后 跟 做 交规题 一个 感觉 ， 恨不得 要 全对 。 我们 知道 日本 韩国 
中国 这些 地方 的 孩子 做 门萨 题 非常 强 ， 平均分 要 比 北美 孩子 高 几分 。 这 完全 有 可能 是 我们 
东亚 的 孩子 平时 做 题 就是 做 得 多 啊 。 我们 还 懂选 C 、 选 整数 、 选 极值 这种 做 题 技巧 对 吧 。 大 
家 如果 不信 也 不妨 试一试 ， 买 他们 门萨 俱乐部 的 书 看看 ， 是不是 多 做 多会 。 

还有 一个 有意思 的 话题 叫做 多元 智商 理论 。 有时候 我们 觉得 啊 ， 一个 高中生 数学 成绩 好 得 
飞 起 ， 但是 他 英语 死学 不会 ， 那么 他 到底 是 聪明 还是 笨蛋 呢 ？ 有 一些 人 就 觉得 ， 智商 好像 
不 能够 只算 一个 很小 的 领域 ， 应该 要 考虑 比较 多 的 领域 。 美国 有 一个 学问家 叫做 加德纳 ， 
他 搞 教育 的 经历 告诉 他 ， 智商 至少 要 包括 8 个 方面 。 

1 .   语文 
2 .   数理逻辑 
3 .   空间 
4 .   肢体 动觉 
5 .   音乐 
6 .   人际 
7 .   内省 
8 .   自然 

这么一来 ， 即使 根据 刻板 印象 ， 也 不 能够 轻易 地说 某个 群体 在 这 八个 方面 都 比 另 一个 群体 
弱 了 对 吧 ？ 

我 其实 不 知道 统计数据 ， 我 不 知道 黑人 到底 笨 还是 聪明 。 『 黑人 』 这个 词 其实 就 很 奇怪 ， 
不 符合 我 的 思维习惯 。 从 我 的 个人 经验 来看 ， 我 觉得 说 人家 蠢 好像 需要 更 多 证据 。 另外 ， 
我 工作 的 单位 有 好多 黑人 ， 主要 是 法国 的 前 殖民地 的 第一代 和 第二代 移民 。 他们 也 念 博士 
， 搞 数学 、 哲学 。 我 并 没有 觉得 他们 水平 就 低 一些 。 跟 我 同一个 办公室 的 一个 来自 加蓬 的 
同学 ， 他 学问 也 很 好 ， 敬业精神 也 超过 我 。 后来 他 不幸 过世 了 ， 我 参加 了 他 的 葬礼 ， 在 葬 
礼上 认识 了 他 的 同胞 。 我 认为 他们 加蓬 人 在 法国 蒙彼利埃 的 留学生 很 团结 、 相互之间 感情 
很深 ， 行动 力 也 很 强 。 今年 上半年 我 去 日内瓦 参加 一个 卢梭 研究 的 学会 ， 认识 一个 非洲 学 
者 ， 是 教育学 专家 。 我 认为 他 的 学术 水平 非常 高 ， 做人 也 很 谦和 得体 ， 是 我 见 过 的 最 优秀 
的 人 之一 。 我 的 这些 个人 经验 可能 不足为据 ， 因为 不 知道 有 一些 什么 统计学 的 偏差 在 里面 
。 姑且 一说 ， 谈谈 我 的 感性认识 。 

编辑 于   2019 - 09 - 05   23 : 33 
​ 赞同   3262 ​ ​ 221   条 评论 
​ 分享 
​ 收藏 ​ 喜欢 收起 ​ 
