[ mian - logo ] 
首页 
风闻 
财经 
国际 
军事 
产经 
科技 
汽车 
视频 
[ vip - diamon ] 观察员 
APP 下载 
[ app - erweim ] 

扫一扫 

下载 观察者 APP 

•   小说 中 的 白人 女主到 了 迪士尼 剧中 变成 黑人 引 争议 ， 原著 作者 回应 

□   [ 2019060915 ] 

郭肖 嚯 ！ 

分享 到 ： 

2022 - 05 - 11   15 : 45 : 06   字号 ： A -   A   A +   来源 ： 观察者 网 
最后 更新 :   2022 - 05 - 12   13 : 51 : 17 

（ 观察者 网讯 ） 近日 ， Disney + 新剧 《 波西 · 杰克逊 与 奥林匹亚 众神 》 因 选用 黑人 女孩 
利亚 · 杰弗里斯 （ Leah   Jeffries ） 出演 女主 安娜 贝斯 （ Annabeth   Chase ) 引发 争议 ， 在 
原著 《 波西 · 杰克逊 》 中 ， 安娜 贝斯 是 希腊 女神 雅典娜 的 女儿 ， 是 个 白人 ， 一些 美国 网 
民 认为 利亚 不 适合 这个 角色 。 

当地 时间 10 日 ， 《 波西 杰克逊 》 原著 作者 里克 · 里奥 丹 （ Rick   Riordan ） 在 个人 博客 以 
《 利亚 就是 安娜 贝丝 》 发文 ， 力挺 利亚 出演 女主 。 

他 指责 那些 批评 利亚 的 网民 是 种族主义者 ， “ 你们 可能 会 说 ‘ 我 不是 种族主义者 ’ ， 或者 
觉得 ， （ 要求 剧组 ） 选择 一个 符合 书中 描述 的 演员 并 不是 种族主义 ， 可是 ， 让 我们 来 
检查一下 这句 话 ， 因为 一个 在 书 中 被 描述 为 白人 的 女孩 角色 由 一个 黑人 女演员 来 出演 
， 她 看起来 不是 你 想象 中 的 样子 ， 你 就 判定 她 不 适合 这个 角色 ， 朋友 们 ， 这 就是 种族 
歧视 。 ” 

[ 20220511140751787 ] 

利亚 · 杰弗里斯 （ 左一 ） 与 另外 两名 主演 

公开 资料 显示 ， 《 波西 · 杰克逊 》 系列丛书 将 希腊 古 神话 与 21 世纪 现代 青少年 的 社会 生 
活 融合 在 一起 ， 是 美国 最 畅销 的 青少年 小说 之一 ， 该 作品 曾 位居 《 纽约时报 》 排行榜 
《 出版 人 周刊 》 排行榜 第一名 ， 被 称为 哈利 · 波特 之后 最好 的 奇幻 小说 。 

近日 ， Disney + 剧集 《 波西 · 杰克逊 与 奥林匹亚 众神 》 宣布 启用 黑人 演员 利亚 担任 女主 
安娜 贝斯 ， 该剧 将 在 温哥华 开拍 ， 消息 一出 ， 在 美国 社交 媒体 上 引发 争议 ， 一些 网民 
认为 黑人 女演员 并 不 适合 安娜 贝斯 这个 角色 。 

安娜 贝斯 在 原著 中是 个 白人 ， 是 智慧 与 技艺 女神 雅典娜 的 后代 ， 她 思维 活跃 ， 充满 好 
奇心 ， 是 主角 波西 · 杰克逊 的 得力助手 。 根据 《 波西 · 杰克逊 》 改编 的 电影 《 波西 · 杰克 
逊 与 神火 之盗 》 中 ， 好莱坞 演员 达 达里奥 曾 饰演 安娜 贝斯 。 

[ 20220511141352809 ] 

有 网民 直言 ， “ 不敢相信 我们 将 迎来 一个 黑 安娜 贝斯 ” “ 我 哭 了 ” ； 

[ 20220511151546403 ] 

[ 20220511151615405 ] 

“ 在 之前 的 各种 官方 作品 中 ， 安娜 贝斯 一直 都 是 白人 ， 所以 你 不能 责怪 一个 老粉 对 黑人 
扮演 安娜 贝斯 这个 决定 失望 ， 说实话 ， 没人 想 过 她 会 是 一个 黑人 ” ； 

[ 20220511151614979 ] 

还有 网民 指责 ， 作者 如果 早就 想选 一个 黑人 来 扮演 安娜 贝斯 ， 应该 在 书 中 就 这么 写 ， 
而 不是 到 了 选角 阶段 这么 操作 … … 

[ 20220511151615595 ] 

当地 时间 10 日 ， 《 波西 · 杰克逊 》 原著 作者 里克 · 里奥 丹以 《 利亚 就是 安娜 贝丝 》 为题 
发文 ， 力挺 利亚 。 

[ 20220511140956670 ] 

他 先是 夸赞 利亚 给 这个 角色 带来 了 很多 热情 、 活力 ， 认为 这 也 是 安娜 贝斯 的 能量 ， “ 她 
将会 成为 新一代 女孩子 们 的 榜样 ， 她们 会 在 她 身上 看到 一个 她们 想 成为 的 英雄形象 。 ” 

随后 ， 里克 喊话 对 选角 不 满意 的 网民 ， 不要 再 发布 对于 利亚 的 负面 评论 ， “ 如果 你们 对 
这个 选角 有 什么 问题 ， 跟 我 说 就 好 ， 你们 不 应该 责怪 其他人 ” ， 利亚 出 生于 2009 年 ， 今 
年 13 岁 ， 里克 写道 ， “ 对 一个 孩子 进行 网络 霸凌 和 骚扰 是 一个 不可 原谅 的 错误 ， 尽管 利 
亚 很 坚强 ， 尽管 我们 已经 讨论 过 这个 角色 可能 带来 的 压力 ， 但 她 已经 收到 太 多 非常 过 
分 的 负面 评论 。 ” 

[ 20220511142111472 ] 

里克 认为 ， 那些 因为 利亚 是 个 黑人 ， 而 认为 她 不 适合 安娜 贝斯 一角 的 人 是 种族歧视 ， “ 
当 你们 的 行为 在 网上 被 称为 种族歧视 时 ， 很 显然 ， 你们 会 觉得 自己 被 冒犯 甚至 感到 愤 
怒 ， 你们 会 说 ， ‘ 我 不是 种族主义 ’ ， 你们 会 觉得 ， （ 要求 剧组 ） 选择 一个 符合 书中描 
述 的 演员 并 不是 种族主义 ， 我们 来 检查一下 这种 说法 ， 你们 沮丧 / 失望 / 生气 ， 因为 一 
个 在 书 中 被 描述 为 白人 的 女孩 ， 由 一个 黑人 女演员 来 出演 ， 她 看起来 不像 你 想象 中 的 
那样 ， 你 要么 是 没有 意识 到 ， 要么 就是 将 她 多年 来 的 天赋 、 努力 与 专注 否定 了 ， 你们 
仅仅 根据 她 的 长相 来 判定 她 不 适合 这个 角色 ， 朋友 们 ， 这 就是 种族歧视 。 ” 

[ 20220511142306179 ] 

他称 ， 那些 对 利亚 不 满意 的 网民 因为 她 的 肤色 ， 拒绝 相信 她 适合 这个 角色 ， “ 当 我 这个 
写 这 本书 、 创造 这个 角色 的 人 说 ， 演员 们 很 适合 这个 角色 ， 因为 他们 在 试镜 的 时候 完 
美 呈现 了 角色 ， 你们 不 信 ； 如果 你 把 利亚 看成 安娜 贝斯 ， 给 她 这个 机会 ， 她 就 会 成为 
安娜 贝斯 ， 但 你 拒绝 相信 这 可能 是 真的 。 你们 一定 觉得 我 是 被 洗脑 了 、 被 贿赂 了 、 被 
威胁 了 ， 我 作为 一个 白人 男性 作家 ， 不 可能 选择 一个 黑人 演员 来演 这个 白人 女孩 。 ” 

里克 补充 道 ， 之前 选角时 ， 他 一直 将 外表 放在 次要 位置 ， “ 作为 作者 ， 我 一直 很 清楚 ， 
我们 在 寻找 最好 的 演员 来 演绎 这些 角色 ， 外表 是 次要 的 ， 我们 做到 了 ， 我们 花 了 一年 
时间 找到 了 最好 的 （ 角色 ） ， 利亚 就是 安娜 贝斯 。 ” 

本文 系 观察者 网 独家 稿件 ， 未经 授权 ， 不得 转载 。 

[ news _ content _ image ] 
| 
举报 
□   (   )   违反 法律法规 
□   (   )   垃圾 信息 、 广告 
□   (   )   色情 、 淫秽 信息 
□   (   )   人身攻击 
□   (   )   谣言 、 不 实 信息 
□   (   )   冒充 ， 冒用 信息 
□   (   )   破坏 社区 秩序 
□   (   )   其他 
□   (   )   涉 未成年人 有害信息 

观察者 网 举报 制度 规范 

确定 取消 
标签 迪士尼 黑人 演员 
□   责任编辑 :   郭肖 
相关 推荐 
□   [ 20220512121219147 ] 

斯 总统 ： 本周 任命 新 总理 ， 将 讨论 废除 总统制 

2022 - 05 - 12   13 : 15 
□   [ 20220512130712475 ] 

婚礼 停电 ， 印度 姐妹 嫁错 郎 … 

2022 - 05 - 12   13 : 09   印度 惊奇 
□   [ 20220512095050786 ] 

“ 重建 乌克兰 需要 数万 亿 欧元 ， 欧洲 不能 独自 承担 ” 

2022 - 05 - 12   12 : 10   乌克兰 之殇 
□   [ 20220512083027456 ] 

意大利 总理 ： 卢布 买 俄气 是 个 “ 灰色 地带 ” ， 德国 已经 开始 了 

2022 - 05 - 12   11 : 28   欧洲 乱局 
□   [ 20220512094607364 ] 

匈牙利 ： 欧盟 禁运 俄国 石油 应 豁免 管线 输油 

2022 - 05 - 12   11 : 14   欧洲 乱局 
□   [ 20220512105354337 ] 

美国 迈阿密 公寓 塌 楼案 达成 9.97 亿美元 和解 ， 法官 ： 我 很 震惊 

2022 - 05 - 12   11 : 14   美国 一梦 
□   [ 10 ] 

100 多名 犹太人 在 德国 转机 被 拒 ， 汉莎 航空 道歉 

2022 - 05 - 12   11 : 11 
□   [ 20220512093919107 ] 

美 内政部 ： 至少 500 名 儿童 死 于 印第安人 寄宿 学校 ， 可能 有 数万 

2022 - 05 - 12   10 : 56   美国 一梦 
□   [ 20220512102727604 ] 

美媒 ： 中国 沙漠 出现 新 靶场 ， 模拟 港口 舰船 

2022 - 05 - 12   10 : 31 
□   [ 20220512102006583 ] 

习近平 向 菲律宾 当选 总统 马科斯 致贺 电 

2022 - 05 - 12   10 : 21 
□   [ 20220512093547775 ] 

英国 与 瑞典 芬兰 签署 安全 协议 ， 承诺 若 两国 遭 攻击 将 提供 支持 

2022 - 05 - 12   09 : 59   不列颠 
□   [ 20220512090726250 ] 

朝鲜 出现 奥密克戎 病例 

2022 - 05 - 12   08 : 49   朝鲜 现状 
□   [ 20220512073756507 ] 

俄方 称 边境 州 一 村庄 遭 来自 乌方 炮击 致 1 死 6 伤 

2022 - 05 - 12   08 : 01   乌克兰 之殇 
□   [ 20220512074351482 ] 

“ 美国 在 朝核问题 上 仍 迷信 于 制裁 的 魔力 ” 

2022 - 05 - 12   07 : 58   半岛 火箭 
□   [ 20220512070748245 ] 

美国 新增 确诊 111910 例 、 死亡 361 例 

2022 - 05 - 12   07 : 11   美国 一梦 
□   [ 20220512064014933 ] 

乌克兰 考虑 用 俘虏 换取 亚速 钢铁厂 守军 

2022 - 05 - 12   06 : 50   乌克兰 之殇 
□   [ 20220511225917908 ] 

美国 4 月份 CPI 同比 上涨 8.3%   高于 此前 预期 

2022 - 05 - 11   23 : 08   美国 经济 
□   [ 20220511222522574 ] 

芬兰 总理 ： 一周 内 决定 是否 申请 入约 

2022 - 05 - 11   22 : 37   欧洲 乱局 
□   [ 20220511201117725 ] 

英国 拟 立法 严打 示威 ， 香港 网友 看乐 了 

2022 - 05 - 11   22 : 31 
□   [ 20220511220912960 ] 

拜登 首邀 东盟 首脑 赴美 举行 峰会 ， 东盟 将 避免 “ 选边 站 ” 

2022 - 05 - 11   22 : 26   观察者 头条 
•   [ 请 输入 关键字 ！             ]   搜索 
观察者 头条 查看 全部 
[ 10 ] 
习近平 同 菲律宾 总统 马科斯 会谈 提到 48 年前 一段 佳话 评论   20 
[ 20230104085 ] 
美国 遭遇 “ 百年 一见 政治 僵局 ”   评论   277 
[ 20230104084 ] 
XBB 毒株 会 引发 第二轮 感染 吗 ？ 中疾控 回应 评论   538 
[ 20230104073 ] 
财政部长 刘昆 ： 今年 每 一分钱 都 用到 国计民生 关键处 评论   127 
[ 20230103202 ] 
“ 把 中国 单独 挑出来 ， 奇怪 且 不 公平 ”   评论   301 
风闻   ·   24 小时 最 热 查看 全部 
最新 视频 查看 全部 
最 新闻   Hot 
□   美国 遭遇 “ 百年一遇 的 政治 僵局 ” 

美国 遭遇 “ 百年一遇 的 政治 僵局 ” 

□   “ 新年伊始 好消息 ， 厄中 自贸 协定 谈判 圆满结束 ” 

“ 新年伊始 好消息 ， 厄中 自贸 协定 谈判 圆满结束 ” 

□   隐瞒 冬季 续航 缩水 ， 特斯拉 在 韩 被 罚 1543 万元 

隐瞒 冬季 续航 缩水 ， 特斯拉 在 韩 被 罚 1543 万元 

□   阿兹夫定 准入 上海 113 家 社区 医院 

阿兹夫定 准入 上海 113 家 社区 医院 

□   比利时 前首相 ： 欧盟 九轮 对 俄 制裁 ， 效果 是 负 的 

比利时 前首相 ： 欧盟 九轮 对 俄 制裁 ， 效果 是 负 的 

□   XBB 毒株 会 引发 第二轮 感染 吗 ？ 中疾控 回应 

XBB 毒株 会 引发 第二轮 感染 吗 ？ 中疾控 回应 

□   海口 多名 男子 持械 打砸 超市 ， 当地 警方 回应 

海口 多名 男子 持械 打砸 超市 ， 当地 警方 回应 

□   欧盟 声称 “ 绝大多数 ” 成员 支持 对 来自 中国 航班 进行 离境 前 检测 

欧盟 声称 “ 绝大多数 ” 成员 支持 对 来自 中国 航班 进行 离境 前 检测 

□   以色列 部长 访问 圣殿山 ， 中国 及 阿联酋 要求 安理会 举行 紧急会议 

以色列 部长 访问 圣殿山 ， 中国 及 阿联酋 要求 安理会 举行 紧急会议 

□   财政部长 刘昆 ： 今年 每 一分钱 都 用到 国计民生 关键处 

财政部长 刘昆 ： 今年 每 一分钱 都 用到 国计民生 关键处 

□   前 北约 将领 预测 称 ： 俄乌 今夏 将 停火 

前 北约 将领 预测 称 ： 俄乌 今夏 将 停火 

□   “ 中国 游客 将 带来 全球 红利 ， 美国 或 无法 分 得 一杯 羹 ” 

“ 中国 游客 将 带来 全球 红利 ， 美国 或 无法 分 得 一杯 羹 ” 

□   “ 把 中国 单独 挑出来 ， 奇怪 且 不 公平 ” 

“ 把 中国 单独 挑出来 ， 奇怪 且 不 公平 ” 

□   一片 抗议声 中 ， 乌方 被迫 删 了 

一片 抗议声 中 ， 乌方 被迫 删 了 

□   “ 马来西亚 欢迎 中国 游客 ， 要 确保 不 搞 双重标准 ” 

“ 马来西亚 欢迎 中国 游客 ， 要 确保 不 搞 双重标准 ” 

□   新年 致辞 涉乌 “ 措辞不当 ” ？ 德防长 被 要求 辞职 

新年 致辞 涉乌 “ 措辞不当 ” ？ 德防长 被 要求 辞职 

快讯 
□   图说   |   关于 XBB.1 . 5 ， 这些 事 你 该 知道 【 科学 防疫 小贴士 】 （ 81 ） 
□   中疾控 ： 短期内 XBB 引发 大规模 流行 的 可能性 低 
□   2023 年 春运 工作 电视电话会议 ： 今年 春运 是 一场 大考 
□   男子 大喊 飞机 要 出事 并 冲撞 舱门 ， 海航 回应 
□   1 月 4 日 《 新闻联播 》 主要 内容 
□   大国 基石   |   聚能 动力 ， 核 科技 造福 千家万户 
□   目前 中国 考古 发现 的 唯一 一件 皇帝 金冠 
□   经济日报 年终 述评 ⑬ ： 民生 保障 有 温度 

•   联系 我们 
•   关于 我们 
•   版权 声明 
•   服务 条款 
•   刊登 广告 
•   联系 微博 
•   加入 我们 
•   网站 地图 
•   举报 链接 
•   举报 制度 规范 
•   《 网站 自律 管理 承诺书 》 

Copyright   ©   2019   观察者   All   rights   reserved 。 
沪 ICP 备 10213822 号 - 2   互联网 新闻 信息 服务 许可证 ： 31220170001   网登 网视 备 （ 沪 ） 
02020000041 - 1 号 互联网 宗教 信息 服务 许可证 ： 沪 （ 2022 ） 0000197   广播 电视节目 制作 经营 
许可证 ： （ 沪 ） 字 第 03952 号 
增值 电信业务 经营 许可证 ： 沪 B2 - 20210968       违法 及 不良信息 举报电话 ： 021 - 62376571 

[ beian - icon ]   沪 公网 安备   31010502000027 号   [ jubao - icon ]   中国 互联网 举报中心 
[ wangxinban ]   上海市 互联网 违法 与 不良信息 举报中心 

评论 返回 顶部 

